{
  "sections": {
    "1643215351996f57df": {
      "type": "custom-content",
      "blocks": {
        "16432153513b897e10-0": {
          "type": "text",
          "settings": {
            "title": "JINA'S BLOG",
            "subheading": "",
            "text": "<p>My name is Jina, and I'll be your guide across the universe of French Health & Beauty Products.<\/p><p><\/p><p>Here you will find some usefull tips and tricks to learn more about French pharmacy products and what it can do for you. Enjoy your reading!<\/p>",
            "width": "100%",
            "alignment": "center",
            "align_text": "center",
            "text_size": "medium",
            "text_color": "black",
            "button_label": "",
            "button_link": "",
            "button_style": "sf__btn-primary",
            "button_size": "",
            "block_custom_class": ""
          }
        }
      },
      "block_order": [
        "16432153513b897e10-0"
      ],
      "settings": {
        "heading": "",
        "subheading": "",
        "description": "",
        "header_alignment": "center",
        "container": "container-fluid",
        "background_color": "",
        "gap": 30,
        "use_scroll_mobile": false,
        "gap_mobile": 16,
        "custom_class": ""
      }
    },
    "main": {
      "type": "blog-template",
      "blocks": {
        "d3edb8bc-04ea-4ca1-90c7-408677484928": {
          "type": "categories",
          "settings": {
            "title": "Categories",
            "list_blog": ""
          }
        },
        "261dcbb3-347b-4fc0-bdb9-897faf531886": {
          "type": "recent_post",
          "settings": {
            "title": "Recent Post",
            "sidebar_recent_blog_name": "news",
            "sidebar_recent_blog_count": "3",
            "blog_show_tags": true,
            "blog_show_author": false,
            "blog_show_date": false,
            "show_excerpt": false,
            "truncate": "15"
          }
        },
        "c1f05653-bae3-4ede-96e8-9b0c3b4d2d9a": {
          "type": "tags",
          "settings": {
            "title": "Tags"
          }
        },
        "64549c91-0da7-4040-9536-59e15e91e6d5": {
          "type": "instagram",
          "settings": {
            "title": "Instagram",
            "images_count": 6
          }
        }
      },
      "block_order": [
        "d3edb8bc-04ea-4ca1-90c7-408677484928",
        "261dcbb3-347b-4fc0-bdb9-897faf531886",
        "c1f05653-bae3-4ede-96e8-9b0c3b4d2d9a",
        "64549c91-0da7-4040-9536-59e15e91e6d5"
      ],
      "settings": {
        "container": "container",
        "show_sidebar": false,
        "layout": "right_column",
        "view": "grid",
        "blog_list": 12,
        "show_item_per_row": 3
      }
    }
  },
  "order": [
    "1643215351996f57df",
    "main"
  ]
}